1 10 20
100 200 125
201 210 89
900 1000 174
899006 471451 525
523671 801446 509
956011 619582 525
426453 953761 525
935718 103844 525
700345 602115 509
494198 122193 449
296055 913040 525
607458 735811 509
593259 752132 509
377298 369906 423
837007 591858 509
943912 368351 525
807928 277553 509
18020 206077 383
685143 207137 509
960194 988252 458
235233 337620 407
177904 232523 443
866852 654443 525
809984 473479 509
344317 45607 443
183173 971152 525
801559 170281 509
638153 14962 509
195195 642702 509
795895 375571 509
3686 584691 470
279050 40585 443
977366 502228 525
638105 657740 429
418830 827430 509
338714 507849 449
822560 603068 509
685400 128809 509
694965 640183 442
493975 633677 509
673379 917638 525
950577 564909 525
506346 34442 449
120108 623657 470
915510 48533 525
467489 32304 449
113652 312644 443
509111 847211 525
218533 263465 443
335850 796902 509
951143 232536 525
810617 211594 509
220900 127884 386
378621 530920 470
879030 828637 525
837294 896927 525
224545 821402 509
745125 425900 509
614020 13105 470
287343 128715 443
76467 977390 525
958236 788041 525
108225 20097 354
557473 454091 470
316765 696864 509
443950 332867 449
682700 812381 504
511146 951600 525
908558 516329 525
665799 477844 509
281634 603136 470
942812 627522 525
414261 205198 449
402567 328004 441
97004 930724 525
94961 34573 351
666334 140265 509
363692 600208 470
186321 782763 509
209667 130041 383
375242 761902 509
675970 470410 509
399543 444977 449
957977 188988 525
771178 45853 509
614893 530225 452
278246 835230 509
300508 266103 407
798011 904020 525
511269 372865 449
570222 628181 509
400715 237668 441
998764 729749 525
463102 843270 525
967459 771457 525
212579 362365 443
560341 894033 525
717410 249821 509
427877 473553 444
873756 135546 525
389592 133787 443
829266 951745 525
569725 311955 470
469196 476894 382
196268 176038 365
546262 322987 470
275031 87550 443
357263 901316 525
217318 289720 443
221938 508715 449
90355 254423 443
84648 646728 509
175881 310440 443
94786 463851 449
943997 198114 525
14932 579067 470
153593 521545 470
443267 183256 449
611368 175474 470
487768 113933 449
179196 128321 383
959024 984710 458
368446 308942 441
399183 339898 441
299085 139622 443
737626 386424 509
906851 773260 525
370632 649198 509
424530 522374 470
382535 911488 525
467826 734111 509
583986 656898 509
764845 633461 504
319393 434487 449
660687 225948 509
844136 549480 525
67616 536465 470
207253 135051 383
996373 202069 525
558918 469713 470
744297 671756 504
819329 140398 509
592642 708084 509
128780 996323 525
354585 220633 443
448710 446772 369
418276 686250 509
515227 272544 470
371740 329836 441
654312 818767 504
769131 207474 509
701442 662094 442
447889 487149 444
459120 903480 525
986601 385950 525
221458 465039 449
721015 279381 509
703397 54149 509
782390 484856 509
907615 993018 507
157542 907095 525
134924 738678 509
900628 960779 507
677878 845917 525
827396 579951 509
639200 609846 509
245921 126622 443
994409 41630 525
382138 808820 509
229427 608107 470
644147 203789 509
52441 451598 449
705465 334913 509
189949 157360 370
669285 74815 509
337745 911905 525
489195 225499 449
49637 117728 354
871611 172054 525
26990 725975 509
197414 194072 360
72742 177074 383
839071 872261 432
843920 60186 525
316564 852429 525
217219 855005 525
881008 249142 525
641124 819208 504
548474 241585 470
310328 149445 443
895785 964938 507
523171 614923 452
185210 29705 383
37675 977718 525
94007 627663 509
52930 693923 509
536492 108355 470
900089 122698 525
2456 997072 525
70852 833410 509
860864 204463 525
121832 991138 525
76139 955820 525
874288 541320 525
302460 535992 470
471229 485349 413
173665 866340 525
838809 388750 525
652105 250947 509
618650 76123 470
531554 984215 525
47891 195631 383
146722 323024 443
584909 379408 470
