788751 340821 509
753918 647031 504
103325 145845 375
428865 625144 470
429161 461752 444
798683 134065 509
570188 282151 470
508289 686968 509
354352 149876 443
630596 110283 509
959386 532265 525
399619 976299 525
53458 730234 509
241108 701442 509
178648 61838 383
542078 947650 525
641592 471458 509
835384 661897 504
542131 657488 509
891719 490397 525
333579 43795 443
321809 658149 509
739820 830 509
55370 543071 470
257856 585402 470
111385 663879 509
910958 77058 525
468923 849309 525
384392 538740 470
708525 108017 509
842373 273045 525
456958 398425 449
185100 401585 443
244208 175653 443
435687 315644 449
547811 600191 434
293525 405752 441
156185 316456 443
151603 295913 443
586161 225126 470
962262 777794 525
304029 688532 509
76063 817795 509
746290 219630 509
656668 854159 525
388003 143963 443
585465 13630 470
417855 743602 509
29225 745317 509
21877 642965 509
496376 877222 525
996241 449922 525
678915 990290 525
229223 33843 386
338092 412500 449
296687 317387 384
726109 825190 468
702646 593523 509
219395 281983 443
858195 445930 525
898615 3021 525
319327 226776 443
357224 500046 449
458662 710212 509
387399 966718 525
232350 553944 470
601075 629196 509
607043 782786 509
384324 305729 441
719759 199860 509
864746 564336 525
202826 188632 360
688239 361834 509
302254 768652 509
860691 975188 507
768258 118724 509
963187 755638 525
101041 272616 443
78166 504756 449
58533 676395 509
475473 196613 449
299255 318136 384
249800 915725 525
555344 373190 470
877150 511510 525
243237 72376 443
80822 784954 509
471324 206134 449
590569 372935 470
4956 408468 443
910339 130338 525
862457 50621 525
816890 56450 509
692455 561666 509
784854 904847 525
523224 182806 470
852174 317217 525
138359 233801 443
172253 196395 365
736963 577231 509
116385 992877 525
223174 308020 443
612404 325642 470
957328 264771 525
105513 359376 443
700548 927809 525
630769 655802 416
31097 227707 386
900266 8660 525
205334 337563 443
817387 596091 509
994558 352349 525
614370 862066 525
970486 34122 525
540115 936967 525
137204 719829 509
629131 400399 509
388610 765009 509
929431 246473 525
312454 22402 443
62358 675580 509
468427 68356 449
992432 941470 458
357541 380617 423
58702 435972 449
338796 490011 449
520444 346715 470
308836 800562 509
597922 725872 509
567929 219969 470
930866 177491 525
839513 481301 525
92417 444419 449
362365 377344 423
925525 844101 476
28176 119479 354
669648 307833 509
112264 20641 354
825702 622453 509
973573 743353 525
633386 356032 509
42768 578596 470
137296 522052 470
194346 312778 443
466178 979355 525
696090 416623 509
954749 147726 525
142849 899399 525
491598 191598 449
640148 343630 509
91850 908559 525
157767 414123 449
505034 448394 444
574281 531404 452
700635 4530 509
859483 780969 525
531746 478749 470
518830 320321 470
114822 623780 470
628632 45851 509
628147 114947 509
481989 55786 449
84492 226141 386
168899 947240 525
486561 709655 509
320382 819647 509
822283 694025 504
987212 223616 525
701650 741015 504
362737 67197 443
191741 380687 443
354425 397741 436
662776 514331 509
729380 929159 525
614796 731712 509
117481 378690 443
466952 173732 449
199856 370062 443
959811 120899 525
598055 422098 470
901335 694229 525
879156 475987 525
47057 440190 449
356301 954596 525
268936 775070 509
99593 517832 470
213921 222675 386
927866 922387 476
459417 510227 444
476910 381540 449
591988 140296 470
911572 363175 525
907957 189595 525
737319 277674 509
340657 167782 443
328147 483123 449
170419 174771 347
70149 198402 383
405368 590386 470
788510 892359 525
994232 984850 427
871502 467025 525
445788 908057 525
483629 709654 509
185772 705365 509
945984 240461 525
699471 257528 509
288385 792061 509
834949 649544 504
956067 133610 525
868726 233568 525
400216 411900 449
617064 948423 525
877989 838437 432
29625 65729 340
280030 602764 470
161327 924022 525
333408 282669 389
549324 687973 509
442728 947763 525
92708 319422 443
383080 129324 443
890905 402607 525
261714 924648 525
163008 427785 449
561317 580221 421
535061 872401 525
286705 618358 470
85645 671229 509
507358 607722 470
792364 786790 406
753099 228820 509
324302 686338 509
178106 556963 470
91078 994577 525
112333 26472 354
882283 748765 525
576886 690002 509
723867 337060 509
262738 401179 441
461859 273847 449
280549 612903 470
907798 481773 525
439217 508069 444
36203 833764 509
567356 838213 525
566145 620784 447
606794 34274 470
167905 448161 449
808016 267854 509
